{
  "collectionName": "components_taxonomy_single_products",
  "info": {
    "name": "singleProduct",
    "icon": "sim-card"
  },
  "options": {},
  "attributes": {
    "product": {
      "model": "product"
    }
  }
}
