{
  "connection": "default",
  "collectionName": "pages",
  "info": {
    "name": "Page"
  },
  "options": {
    "increments": true,
    "timestamps": true
  },
  "attributes": {
    "uri": {
      "type": "string"
    },
    "active": {
      "type": "boolean",
      "default": true,
      "required": true
    },
    "metatag": {
      "type": "component",
      "repeatable": true,
      "component": "page-data.meta"
    },
    "title": {
      "type": "string"
    },
    "Content": {
      "type": "dynamiczone",
      "components": [
        "ui.typography",
        "ui.hero",
        "ui.cta",
        "ui.category-link",
        "ui.floated-paragraph"
      ]
    }
  }
}
