{
  "info": {
    "name": "categoryLink",
    "icon": "adjust"
  },
  "options": {},
  "attributes": {
    "displayTitle": {
      "type": "string"
    },
    "linkOverride": {
      "type": "string"
    },
    "icon": {
      "collection": "file",
      "via": "related",
      "plugin": "upload",
      "required": false
    },
    "category": {
      "model": "category"
    },
    "categoryLinkCta": {
      "type": "component",
      "repeatable": false,
      "component": "ui.cta"
    }
  },
  "connection": "default",
  "collectionName": "components_ui_category_links"
}
