{
  "connection": "default",
  "collectionName": "components_ui_heroes",
  "info": {
    "name": "hero",
    "icon": "camera-retro"
  },
  "options": {},
  "attributes": {
    "cta": {
      "type": "component",
      "repeatable": false,
      "component": "ui.cta"
    },
    "hero_content": {
      "type": "component",
      "repeatable": false,
      "component": "ui.text-and-image"
    }
  }
}
